[
	{
		"title": "RealestateAgent",
		"tags": "",
		"body": "[I'm on my way now.]\n\n[Let them in, and show them around the house.]\n\n[Bye, Karen.]\n\n[[...|RARealEstate]]\n[[Do you work in real estate, by any chance?|RARealEstate]]\n[[Who's Karen?|RAKaren]]",
		"position": {
			"x": 837,
			"y": 242
		},
		"colorID": 0
	},
	{
		"title": "RARealEstate",
		"tags": "",
		"body": "I'm a sales agent at RealCo.\n\nEmployee of the month three times running.\n\n[[RASale]]",
		"position": {
			"x": 1138,
			"y": 249
		},
		"colorID": 0
	},
	{
		"title": "RAKaren",
		"tags": "",
		"body": "Karen is my co-worker at RealCo.\n\nShe's lovely, but she lacks the killer instinct.\n\n[[RASale]]",
		"position": {
			"x": 1141,
			"y": 500
		},
		"colorID": 0
	},
	{
		"title": "RASale",
		"tags": "",
		"body": "Have you thought about buying a home?\n\n[[...|RASale2]]\n[[From time to time|RASale2]]\n[[I've dreamt about it|RASale2]]\n[[It would certainly be nice|RASale2]]",
		"position": {
			"x": 1490,
			"y": 246
		},
		"colorID": 0
	},
	{
		"title": "RASale2",
		"tags": "",
		"body": "We've got some quality entry-level units for sale.\n\nThey're a bit out of the way, but excellent for a first home.\n\n[[...|RASaleInfo]]\n[[Entry level?|RASaleInfo]]\n[[How far out of the way?|RASaleInfo]]\n[[How much are we talking?|RASaleInfo]]",
		"position": {
			"x": 1749,
			"y": 249
		},
		"colorID": 0
	},
	{
		"title": "RASaleInfo",
		"tags": "",
		"body": "Newly built studio apartments, all the latest amenities.\n\nOnly a stone's throw from Sunshine station.\n\nStarting at $280,000.\n\n-> ...\n    You should think about it!\n-> That's a bit beyond my budget\n    You won't find a better deal!\n-> Studio apartments are tiny\n    They're the way to go these days,\n    I've seen families with two kids living in them.\n-> Sunshine is in the middle of nowhere\n    No shame in commuting for a bit,\n    it's a stepping stone to something better.\n\n[[RAPricesUp]]",
		"position": {
			"x": 2025,
			"y": 244
		},
		"colorID": 0
	},
	{
		"title": "RAPricesUp",
		"tags": "",
		"body": "Prices are only going to go up!\n\n-> ...\n    Here's my card! Get in touch any time.\n-> I'll think about it\n    Here's my card! Get in touch any time.\n-> I'll try not to think about it\n    ...",
		"position": {
			"x": 2284,
			"y": 243
		},
		"colorID": 0
	},
	{
		"title": "BusinessPerson",
		"tags": "",
		"body": "-> ...\n    I hope I get to the office soon.\n    Do you make many trips to the business district?\n-> Nice weather we're having?\n    It's a bit too hot for me in this suit.\n    Do you get many office workers riding with you?\n-> You're looking smart today\n    Yep, got my suit dry cleaned for another day at the office!\n    I bet you get a lot of business passengers?\n-> Got business in town?\n    Just another day at the office.\n    I bet you've heard that a thousand times before?\n\n[[BPBusiness]]",
		"position": {
			"x": 826,
			"y": -262
		},
		"colorID": 0
	},
	{
		"title": "BPBusiness",
		"tags": "",
		"body": "-> ...\n-> All the time\n    I knew it! I'm in safe hands with you.\n-> Sometimes\n    Great, so you know the way. This is gonna be a breeze.\n-> You're the first\n    Uh oh, I hope I make it on time.\n    Well, you look capable, I'm sure I'll be fine.\n\n[[BPSoccer]]",
		"position": {
			"x": 1136,
			"y": -265
		},
		"colorID": 0
	},
	{
		"title": "BPSoccer",
		"tags": "",
		"body": "My son's playing soccer at school today.\n\nI hope he does well.\n-> ...\n-> How old is he?\n    He turned 7 last month. Growing up so fast.\n-> Who's he playing against?\n    The blowfishes. Kids from the neighboring school.\n\n[[BPSon]]",
		"position": {
			"x": 1438,
			"y": -259
		},
		"colorID": 0
	},
	{
		"title": "BPSon",
		"tags": "",
		"body": "I wish I could be there to watch him play.\n\nStill, gotta pay the bills, am I right?\n\n[[...|BPBillAck]]\n[[Don't I know it|BPBillAck]]\n[[I'm still paying off my cart|BPBillCart]]",
		"position": {
			"x": 1769,
			"y": -349
		},
		"colorID": 0
	},
	{
		"title": "BPBillCart",
		"tags": "",
		"body": "Yipes! How much longer you got left on it?\n\n[[...|BPBillAck]]\n[[Another year or so|BPBillAck]]\n[[1,000 trips, give or take|BPBillAck]]\n[[A pocket-sized eterntity|BPBillAck]]",
		"position": {
			"x": 1957,
			"y": -43
		},
		"colorID": 0
	},
	{
		"title": "BPBillAck",
		"tags": "",
		"body": "Such is life, my friend.",
		"position": {
			"x": 2122,
			"y": -344
		},
		"colorID": 0
	},
	{
		"title": "Bohemian",
		"tags": "",
		"body": "Hey dude, can you turn up the tunes?\n\n-> ...\n-> I'm not playing any tunes\n    Yeah, right.\n-> There's no audio system\n    Yeah, right.\n-> This is a rickshaw\n    Yeah, right.\n\nSo you like, carry people around all day?\n\n-> ...\n-> That's my job\n-> That's how this thing works\n\nIsn't that kinda messed up?\n\nLike, we all live on this little world.\n\nWe should all be carrying each other.\n\n-> ...\n-> That's how it is\n    Shame.\n-> You want to carry me?\n    Well, not like me, exactly.\n\nOne day, everyone's gonna realize.\n\nWe're all gonna pitch in and make it work, am I right?\n\n-> ...\n    Yeah, you know I am.\n-> You may well be\n    Yeah, you know I am.\n-> I have my doubts\n    Whatever, man.",
		"position": {
			"x": 816,
			"y": 788
		},
		"colorID": 0
	},
	{
		"title": "SoccerKid",
		"tags": "",
		"body": "Hey, Mister.\n\n-> ...\n-> Yo\n-> Hey, champ\n-> What's up, young man?\n\nWe just thrashed the humming birds in the championships.\n\nIt was epic.\n\n-> ...\n-> Hummingbirds?\n    They're our rivals.\n-> Thrashed?\n    Crushed, destroyed, annihilated.\n-> Championships?\n    The last game of the interschool playoff.\n\nYou should've seen coach's face when we kicked that third goal.\n\nYou ever played football, mister?\n\n-> ...\n    It's the best thing ever. Especially when you win.\n-> I've been known to\n    You know the feeling, then? When you win.\n-> Not that I'd admit to\n    Hah, I bet you just never won a game. It's the best.\n\nThat feeling, when you've finally done it.\n\nThat's what life's about!",
		"position": {
			"x": 1121,
			"y": 782
		},
		"colorID": 0
	},
	{
		"title": "SadPerson",
		"tags": "",
		"body": "Hey, can I ask you something?\n\n-> ...\n-> Sure, ask away\n-> What is it?\n\nDo you ever get this feeling, like the walls are closing in?\n\n[[...|SPQuiet]]\n[[Nope, never|SPQuiet]]\n[[Yes, I do|SPTalk]]\n[[What do you mean?|SPTalk]]",
		"position": {
			"x": 1449,
			"y": 786
		},
		"colorID": 0
	},
	{
		"title": "SPQuiet",
		"tags": "",
		"body": "Nevermind, it's silly.\n\n-> ...\n-> Busy day today?\n    Not really.\n-> Seen any good movies?\n    Not lately.\n-> What do you like to do?\n    Not much.\n\n...\n\n-> ...\n-> Been following the news?\n    Nope.\n-> Seen anything on TV?\n    Nope.\n-> What's you favourite band?\n    I don't really listen to music.\n\n...\n\n-> ...\n-> We're almost there\n    OK.",
		"position": {
			"x": 1740,
			"y": 791
		},
		"colorID": 0
	},
	{
		"title": "SPTalk",
		"tags": "",
		"body": "I'm just not sure how to get through the day, sometimes.\n\nWhat keeps you going?\n\n-> ...\n    Right.\n-> I've got my job\n    Yeah, it's hard to worry when you're busy.\n-> I've got my cart\n    Right, there's folk out there with nothing at all.\n-> I've got my dreams\n    Ah, I used to have dreams. Still have dreams.\n\nI think I need to get away. Go somewhere new.\n\n-> ...\n    Oh...\n-> A change is always nice\n    Pity I'll still be the same.\n-> It'd be fun to see the world\n    It's a pretty small world.\n\nThanks for listening to me.\n\n-> ...\n-> You're welcome\n-> Anytime\n\nI'm sure we'll both find what we're looking for.",
		"position": {
			"x": 1740,
			"y": 1075
		},
		"colorID": 0
	},
	{
		"title": "RichMan",
		"tags": "",
		"body": "-> ...\n    [Tell him I'll call him back on Monday, I've gotta speak to the investors.]\n-> How's it going, sir.\n    It's going great.\n-> Been following the news?\n    Haven't had time.\n-> Got a busy day?\n    You don't know the half of it.\n\nI've got a huge deal in the works.\n\n-> ...\n    I'm gonna nail it.\n-> Sounds exciting\n    You bet, I've got this in the bag.\n-> Sounds scary\n    Not at all, I'm a pro at this.\n\nI'm sure you'd understand, a hard worker like yourself.\n\n-> ...\n-> Thanks\n-> I do what I have to do\n\nIt's nice to see someone who's not afraid of hard work.\n\nFolks are lazy these days, always begging for handouts.\n\nNobody gave me squat, I built it all myself.\n\nTook over my dad's little Podunk shop,\n\nnow it's one of the biggest companies on the planet.\n\nYou keep working hard, the world's your oyster.",
		"position": {
			"x": 820,
			"y": 1104
		},
		"colorID": 0
	},
	{
		"title": "Engineer",
		"tags": "",
		"body": "Oh, what a cute cart. Did you make it yourself?\n\n-> ...\n-> Of course\n    Splendid!\n-> Not a chance\n    Oh, well you made an excellent purchase then.\n\nYou'll be interested in this, I'm working on designing a robot.\n\nIt will be able to drive a rickshaw all by itself.\n\nCompletely automated, what do you think about that?\n\n-> ...\n-> A robot could never drive a rickshaw\n    Oh ho ho, I think you'll be surprised!\n-> I like driving my rickshaw\n    Think of what else you'll be able to do with your time.\n-> I need my job to survive\n    This will create lots of new jobs in technology.\n\nMy rickshaw robot is going to make the world a better place.\n\nYou should think about studying engineering,\nthe future is coming, like it or not!\n\n-> ...\n-> I can't afford to go back to school\n    You could get a loan, or learn part time.\n-> I wouldn't be able to understand engineering\n    Stretch yourself, you might be surprised.\n-> Driving this rickshaw is my life\n    It's just a job, don't let it define you.\n\nThere's more opportunites around now than in any time in history.\n\nIt's up to you to seize the future!",
		"position": {
			"x": 1126,
			"y": 1106
		},
		"colorID": 0
	},
	{
		"title": "Inspector",
		"tags": "",
		"body": "Hello there. Is this your rickshaw?\n\n-> ...\n    Well, then...\n-> Yes it is\n    I see.\n-> In a few more months, it might be\n    I see.\n-> Why do you ask?\n    I'll explain in a moment.\n\nHave you been operating this rickshaw for long?\n\n-> ...\n    I'm beginning to get the picture.\n-> Not long\n    Is that so?\n-> It's been a few years now\n    Right.\n-> What's with all the questions?\n    All in good time.\n\nJust one more question...\n\n<<UpendGame Player>>\n\nDo you have a rickshaw license?\n\n-> ...\n-> No\n-> What's that?\n\nI'm with the transport authority,\n\nyou need a license to operate a rickshaw.\n\nYou can go and get one at the town hall for $80,000.\n\nI'll hold onto your rickshaw until you get back.\n\n<<EndGame Player>>",
		"position": {
			"x": 832,
			"y": 1442
		},
		"colorID": 0
	},
	{
		"title": "RealestateAgent2",
		"tags": "",
		"body": "Hello again, it's me, Emily!\n\n-> ...\n    You remember, I'm a sales agent at RealCo?\n-> Hi, Emily\n-> Emily?\n    Did you forget my name? I work at RealCo.\n\nHave you changed your mind about buying a home?\n\n-> ...\n-> Yes\n-> No\n-> Maybe\n\nWell, before you say anything, let me tell you what's available.\n\nWe've got some lovely vintage studio apartments.\n\nCertified architecturally sound.\n\nWithin cycling distance of Sunshine.\n\nStarting from $420,000.\n\n-> ...\n-> Architecturally sound?\n    I won't lie, it's a fixer-upper.\n-> Cycling distance?\n    You'll hardly notice it.\n-> $420,000?\n    I know, it's a steal.\n\nI guarantee, you won't find a better deal.\n\nPrices are still going up, there'll never be a better time to buy.\n\n-> ...\n-> I don't think so\n-> I can't afford that\n-> Maybe some other time\n\nWell, think it over. I'll give you another card.\n\n-> ...\n-> I don't have $420,000\n-> I don't want your card\n-> I don't want to think about it\n\n...",
		"position": {
			"x": 1443,
			"y": 1098
		},
		"colorID": 0
	}
]